{
  "info": {
    "_postman_id": "41915538-d705-4d82-93ff-dcf43f9b2392",
    "name": "Ethfinex Trustless",
    "schema": "https://schema.getpostman.com/json/collection/v2.1.0/collection.json"
  },
  "item": [
    {
      "name": "getOrders",
      "request": {
        "method": "GET",
        "header": [],
        "body": {
          "mode": "raw",
          "raw": ""
        },
        "url": {
          "raw": "http://127.0.0.1:8080/api/v0/orders",
          "protocol": "http",
          "host": ["127", "0", "0", "1"],
          "port": "8080",
          "path": ["api", "v0", "orders"]
        },
        "description": "Get open orders"
      },
      "response": []
    },
    {
      "name": "getHistory",
      "request": {
        "method": "GET",
        "header": [],
        "body": {
          "mode": "raw",
          "raw": ""
        },
        "url": {
          "raw": "http://127.0.0.1:8080/api/v0/history",
          "protocol": "http",
          "host": ["127", "0", "0", "1"],
          "port": "8080",
          "path": ["api", "v0", "history"]
        },
        "description": "Get order history"
      },
      "response": []
    },
    {
      "name": "cancelOrder",
      "request": {
        "method": "DELETE",
        "header": [],
        "body": {
          "mode": "raw",
          "raw": ""
        },
        "url": {
          "raw": "http://127.0.0.1:8080/api/v0/order/:id",
          "protocol": "http",
          "host": ["127", "0", "0", "1"],
          "port": "8080",
          "path": ["api", "v0", "order", ":id"],
          "variable": [
            {
              "key": "id",
              "value": "0"
            }
          ]
        },
        "description": "Cancel single order by id"
      },
      "response": []
    },
    {
      "name": "cancelOrders",
      "request": {
        "method": "DELETE",
        "header": [],
        "body": {
          "mode": "raw",
          "raw": ""
        },
        "url": {
          "raw": "http://127.0.0.1:8080/api/v0/orders",
          "protocol": "http",
          "host": ["127", "0", "0", "1"],
          "port": "8080",
          "path": ["api", "v0", "orders"]
        },
        "description": "Cancel all orders"
      },
      "response": []
    },
    {
      "name": "getAddress",
      "request": {
        "method": "GET",
        "header": [],
        "body": {
          "mode": "raw",
          "raw": ""
        },
        "url": {
          "raw": "http://127.0.0.1:8080/api/v0/address",
          "protocol": "http",
          "host": ["127", "0", "0", "1"],
          "port": "8080",
          "path": ["api", "v0", "address"]
        },
        "description": "Get deposit address"
      },
      "response": []
    },
    {
      "name": "getBalance",
      "request": {
        "method": "GET",
        "header": [],
        "body": {
          "mode": "raw",
          "raw": ""
        },
        "url": {
          "raw": "http://127.0.0.1:8080/api/v0/balance",
          "protocol": "http",
          "host": ["127", "0", "0", "1"],
          "port": "8080",
          "path": ["api", "v0", "balance"]
        },
        "description": "Get account balance"
      },
      "response": []
    },
    {
      "name": "doWithdraw",
      "request": {
        "method": "POST",
        "header": [
          {
            "key": "Content-Type",
            "name": "Content-Type",
            "value": "application/json",
            "type": "text"
          }
        ],
        "body": {
          "mode": "raw",
          "raw": "{ \"token\": \"ETH\" }"
        },
        "url": {
          "raw": "http://127.0.0.1:8080/api/v0/withdraw",
          "protocol": "http",
          "host": ["127", "0", "0", "1"],
          "port": "8080",
          "path": ["api", "v0", "withdraw"]
        },
        "description": "Withdrawal token"
      },
      "response": []
    },
    {
      "name": "createOrder",
      "request": {
        "method": "POST",
        "header": [
          {
            "key": "Content-Type",
            "name": "Content-Type",
            "value": "application/json",
            "type": "text"
          }
        ],
        "body": {
          "mode": "raw",
          "raw": "{ \"symbol\": \"ETHUSD\", \"amount\": 0.25, \"price\": 100, \"lock\": 120 }"
        },
        "url": {
          "raw": "http://127.0.0.1:8080/api/v0/orders",
          "protocol": "http",
          "host": ["127", "0", "0", "1"],
          "port": "8080",
          "path": ["api", "v0", "orders"]
        },
        "description": "Create new order"
      },
      "response": []
    }
  ]
}
